{
    "inputMessageMetadata": {
        "outboundProperties": {
            "ROUTER_TYPE": {
                "dataType": "UNKNOWN",
                "metaDataModelPropertiesManager": {
                    "properties": []
                }
            }
        }
    },
    "outputMessageMetadata": {},
    "id": "916a5dff-5f73-4b55-b32b-959a0e660b53",
    "version": "5.2.0.0"
}