{
    "inputMessageMetadata": {
        "messagePayload": {
            "connectorName": "#_custom_mule_metadata_type_#",
            "typeId": "RequestDetails"
        }
    },
    "outputMessageMetadata": {
        "messagePayload": {
            "connectorName": "#_custom_mule_metadata_type_#",
            "typeId": "trx01-schema"
        }
    },
    "id": "85a9433c-2914-49b7-bb15-d29b89f02e0c",
    "version": "5.2.0.0"
}