{
    "inputMessageMetadata": {},
    "outputMessageMetadata": {
        "inboundProperties": {
            "ROUTER_TYPE": {}
        }
    },
    "id": "5dc8f216-91f5-4804-97cc-3148944f4d20",
    "version": "5.2.0.0"
}